{
  "customManagers": [
    {
      "customType": "regex",
      "fileMatch": ["^Dockerfile$"],
      "matchStrings": ["ENV IMAGE=(?<depName>.*?):(?<currentValue>.*?)\\n"],
      "datasourceTemplate": "docker"
    }
  ]
}
