{
  "trace_session": {
    "name": "Default",
    "points": [
      {
        "name": "container/start"
      },
      {
        "name": "sentry/clone",
        "context_fields": [
          "group_id",
          "process_name"
        ]
      },
      {
        "name": "sentry/task_exit",
        "context_fields": [
          "group_id",
          "process_name"
        ]
      },
      {
        "name": "syscall/sysno/61/exit",
        "context_fields": [
          "group_id",
          "process_name"
        ]
      },
      {
        "name": "syscall/sysno/61/enter",
        "context_fields": [
          "group_id",
          "process_name"
        ]
      },
      {
        "name": "syscall/sysno/247/exit",
        "context_fields": [
          "group_id",
          "process_name"
        ]
      },
      {
        "name": "syscall/sysno/247/enter",
        "context_fields": [
          "group_id",
          "process_name"
        ]
      }
    ],
    "sinks": [
      {
        "name": "remote",
        "config": {
          "endpoint": "/tmp/themis/process_monitor.sock"
        }
      }
    ]
  }
}
